<?xml version="1.0" encoding="UTF-8" standalone="no"?>
<!-- Created with Inkscape (http://www.inkscape.org/) -->

<svg
   xmlns:osb="http://www.openswatchbook.org/uri/2009/osb"
   xmlns:dc="http://purl.org/dc/elements/1.1/"
   xmlns:cc="http://creativecommons.org/ns#"
   xmlns:rdf="http://www.w3.org/1999/02/22-rdf-syntax-ns#"
   xmlns:svg="http://www.w3.org/2000/svg"
   xmlns="http://www.w3.org/2000/svg"
   xmlns:xlink="http://www.w3.org/1999/xlink"
   xmlns:sodipodi="http://sodipodi.sourceforge.net/DTD/sodipodi-0.dtd"
   xmlns:inkscape="http://www.inkscape.org/namespaces/inkscape"
   width="210mm"
   height="297mm"
   viewBox="0 0 210 297"
   version="1.1"
   id="svg8"
   inkscape:version="0.92.2 (5c3e80d, 2017-08-06)"
   sodipodi:docname="fizzgun.svg"
   inkscape:export-filename="/Users/seba/git/atlassian/fizzgun/docs/logo.png"
   inkscape:export-xdpi="155.53049"
   inkscape:export-ydpi="155.53049">
  <defs
     id="defs2">
    <linearGradient
       inkscape:collect="always"
       id="linearGradient956">
      <stop
         id="stop954"
         offset="0"
         style="stop-color:#ffdd1c;stop-opacity:0;" />
      <stop
         id="stop952"
         offset="1"
         style="stop-color:#ffdd1c;stop-opacity:1;" />
    </linearGradient>
    <linearGradient
       id="linearGradient6664"
       osb:paint="solid">
      <stop
         style="stop-color:#e32929;stop-opacity:1;"
         offset="0"
         id="stop6662" />
    </linearGradient>
    <inkscape:perspective
       sodipodi:type="inkscape:persp3d"
       inkscape:vp_x="170.42234 : 173.95681 : 1"
       inkscape:vp_y="-292.22922 : 956.3483 : 0"
       inkscape:vp_z="-30.410797 : 112.58867 : 1"
       inkscape:persp3d-origin="84.471121 : 95.933501 : 1"
       id="perspective6022" />
    <linearGradient
       id="linearGradient4534"
       osb:paint="solid">
      <stop
         style="stop-color:#000000;stop-opacity:1;"
         offset="0"
         id="stop4532" />
    </linearGradient>
    <filter
       inkscape:collect="always"
       style="color-interpolation-filters:sRGB"
       id="filter6542"
       x="-0.081506801"
       width="1.1630136"
       y="-0.16001015"
       height="1.3200203">
      <feGaussianBlur
         inkscape:collect="always"
         stdDeviation="0.33075031"
         id="feGaussianBlur6544" />
    </filter>
    <radialGradient
       inkscape:collect="always"
       xlink:href="#linearGradient956"
       id="radialGradient985"
       cx="358.41132"
       cy="655.57867"
       fx="358.41132"
       fy="655.57867"
       r="8.8972006"
       gradientTransform="matrix(1,0,0,1.4003718,0,-261.99019)"
       gradientUnits="userSpaceOnUse"
       spreadMethod="pad" />
    <filter
       inkscape:collect="always"
       style="color-interpolation-filters:sRGB"
       id="filter1373"
       x="-0.072351488"
       width="1.144703"
       y="-0.051250729"
       height="1.1025015">
      <feGaussianBlur
         inkscape:collect="always"
         stdDeviation="0.52153428"
         id="feGaussianBlur1375" />
    </filter>
    <radialGradient
       inkscape:collect="always"
       xlink:href="#linearGradient956"
       id="radialGradient1769"
       cx="362.82623"
       cy="614.27557"
       fx="362.82623"
       fy="614.27557"
       r="11.976416"
       gradientTransform="matrix(-0.25303382,0.07731898,0.09309518,0.30466297,117.33537,-50.689066)"
       gradientUnits="userSpaceOnUse" />
    <filter
       inkscape:collect="always"
       style="color-interpolation-filters:sRGB"
       id="filter3398"
       x="-0.023226968"
       width="1.0464539"
       y="-0.079986218"
       height="1.1599724">
      <feGaussianBlur
         inkscape:collect="always"
         stdDeviation="0.14486604"
         id="feGaussianBlur3400" />
    </filter>
    <filter
       inkscape:collect="always"
       style="color-interpolation-filters:sRGB"
       id="filter3442"
       x="-0.37492332"
       width="1.7498466"
       y="-0.079218539"
       height="1.1584371">
      <feGaussianBlur
         inkscape:collect="always"
         stdDeviation="0.12788051"
         id="feGaussianBlur3444" />
    </filter>
    <filter
       inkscape:collect="always"
       style="color-interpolation-filters:sRGB"
       id="filter3470"
       x="-0.33590462"
       width="1.6718092"
       y="-0.057642975"
       height="1.115286">
      <feGaussianBlur
         inkscape:collect="always"
         stdDeviation="0.10837096"
         id="feGaussianBlur3472" />
    </filter>
    <filter
       inkscape:collect="always"
       style="color-interpolation-filters:sRGB"
       id="filter4042"
       x="-0.02504755"
       width="1.0500951"
       y="-0.35574803"
       height="1.7114961">
      <feGaussianBlur
         inkscape:collect="always"
         stdDeviation="0.33826153"
         id="feGaussianBlur4044" />
    </filter>
    <filter
       inkscape:collect="always"
       style="color-interpolation-filters:sRGB"
       id="filter4410"
       x="-0.006278093"
       width="1.0125562"
       y="-0.13545311"
       height="1.2709062">
      <feGaussianBlur
         inkscape:collect="always"
         stdDeviation="0.11572888"
         id="feGaussianBlur4412" />
    </filter>
    <filter
       inkscape:collect="always"
       style="color-interpolation-filters:sRGB"
       id="filter4544"
       x="-0.20662375"
       width="1.4132475"
       y="-1.1020356"
       height="3.2040712">
      <feGaussianBlur
         inkscape:collect="always"
         stdDeviation="0.16372263"
         id="feGaussianBlur4546" />
    </filter>
  </defs>
  <sodipodi:namedview
     id="base"
     pagecolor="#ffffff"
     bordercolor="#666666"
     borderopacity="1.0"
     inkscape:pageopacity="0.0"
     inkscape:pageshadow="2"
     inkscape:zoom="1.4142136"
     inkscape:cx="183.46171"
     inkscape:cy="478.08285"
     inkscape:document-units="mm"
     inkscape:current-layer="layer1"
     showgrid="false"
     showguides="false"
     inkscape:window-width="1680"
     inkscape:window-height="925"
     inkscape:window-x="0"
     inkscape:window-y="36"
     inkscape:window-maximized="0" />
  <metadata
     id="metadata5">
    <rdf:RDF>
      <cc:Work
         rdf:about="">
        <dc:format>image/svg+xml</dc:format>
        <dc:type
           rdf:resource="http://purl.org/dc/dcmitype/StillImage" />
        <dc:title></dc:title>
      </cc:Work>
    </rdf:RDF>
  </metadata>
  <g
     inkscape:label="Layer 1"
     inkscape:groupmode="layer"
     id="layer1"
     style="display:inline">
    <path
       style="fill:#dddedf;fill-opacity:1;stroke:#000000;stroke-width:0.78233594;stroke-linecap:butt;stroke-linejoin:miter;stroke-miterlimit:4;stroke-dasharray:none;stroke-opacity:1"
       d="m 112.96998,158.02894 -16.235196,2.58546 c 1.319704,3.22801 2.555305,6.46122 3.121137,9.73597 l 14.993779,-6.88723 c -2.44104,-2.54324 -2.29048,-4.8362 -1.87972,-5.4342 z"
       id="path6546"
       inkscape:connector-curvature="0"
       sodipodi:nodetypes="ccccc" />
    <circle
       style="opacity:1;fill:#ff861a;fill-opacity:1;stroke:#000000;stroke-width:1.10000002;stroke-miterlimit:4;stroke-dasharray:none;stroke-opacity:1"
       id="path6053"
       cx="-67.759293"
       cy="186.54927"
       r="6.7485552"
       transform="matrix(-0.9563483,0.29222923,0.29222923,0.9563483,0,0)" />
    <g
       sodipodi:type="inkscape:box3d"
       id="g6024"
       style="fill:#ffffff;fill-opacity:0;stroke:#000000;stroke-width:4.15748024;stroke-miterlimit:4;stroke-dasharray:none;stroke-opacity:1"
       inkscape:perspectiveID="#perspective6022"
       inkscape:corner0="-0.13846084 : 0.049587758 : 0 : 1"
       inkscape:corner7="-0.13846084 : 0.026331176 : 0.25 : 1">
      <path
         sodipodi:type="inkscape:box3dside"
         id="path6026"
         style="fill:#353564;fill-rule:evenodd;stroke:none;stroke-linejoin:round"
         inkscape:box3dsidetype="6"
         d="m 53.837727,158.56119 7.888501,25.81588 -20.722847,0.008 -6.114272,-20.00954 z"
         points="61.726228,184.37707 41.003381,184.38477 34.889109,164.37523 53.837727,158.56119 " />
      <path
         sodipodi:type="inkscape:box3dside"
         id="path6030"
         style="fill:#8686bf;fill-rule:evenodd;stroke:none;stroke-linejoin:round"
         inkscape:box3dsidetype="3"
         d="m 53.837727,158.56119 v 0 l 7.888501,25.81588 v 0 z"
         points="53.837727,158.56119 61.726228,184.37707 61.726228,184.37707 53.837727,158.56119 " />
      <path
         sodipodi:type="inkscape:box3dside"
         id="path6032"
         style="fill:#d7d7ff;fill-rule:evenodd;stroke:none;stroke-linejoin:round"
         inkscape:box3dsidetype="14"
         d="m 53.837727,158.56119 7.888501,25.81588 -20.722847,0.008 -6.114272,-20.00954 z"
         points="61.726228,184.37707 41.003381,184.38477 34.889109,164.37523 53.837727,158.56119 " />
      <path
         sodipodi:type="inkscape:box3dside"
         id="path6028"
         style="fill:#4d4d9f;fill-rule:evenodd;stroke:none;stroke-linejoin:round"
         inkscape:box3dsidetype="5"
         d="m 53.837727,158.56119 v 0 l -18.948618,5.81404 v 0 z"
         points="53.837727,158.56119 34.889109,164.37523 34.889109,164.37523 53.837727,158.56119 " />
      <path
         sodipodi:type="inkscape:box3dside"
         id="path6034"
         style="fill:#afafde;fill-rule:evenodd;stroke:none;stroke-linejoin:round"
         inkscape:box3dsidetype="13"
         d="m 61.726228,184.37707 v 0 l -20.722847,0.008 v 0 z"
         points="61.726228,184.37707 41.003381,184.38477 41.003381,184.38477 61.726228,184.37707 " />
      <path
         sodipodi:type="inkscape:box3dside"
         id="path6036"
         style="fill:#e9e9ff;fill-rule:evenodd;stroke:none;stroke-linejoin:round"
         inkscape:box3dsidetype="11"
         d="m 34.889109,164.37523 v 0 l 6.114272,20.00954 v 0 z"
         points="34.889109,164.37523 41.003381,184.38477 41.003381,184.38477 34.889109,164.37523 " />
    </g>
    <path
       style="fill:#ffffff;fill-opacity:1;fill-rule:nonzero;stroke:none;stroke-width:0.26458332px;stroke-linecap:butt;stroke-linejoin:miter;stroke-opacity:1;filter:url(#filter6542)"
       d="m 54.475819,168.3936 c 3.737766,4.78531 9.96271,0.72675 9.732885,0.14174 -0.0079,3.31143 -2.070797,4.24334 -4.441219,4.8192 -3.685673,-0.37246 -4.994813,-2.32927 -5.291666,-4.96094 z"
       id="path6055"
       inkscape:connector-curvature="0"
       sodipodi:nodetypes="cccc"
       transform="matrix(-0.9563483,0.29222923,0.29222923,0.9563483,127.02631,-18.974536)" />
    <path
       style="opacity:0.62999998;fill:none;stroke:#000000;stroke-width:0.80257058;stroke-linecap:butt;stroke-linejoin:round;stroke-miterlimit:4;stroke-dasharray:none;stroke-opacity:1"
       d="m 112.91661,163.03532 c -5.14483,2.26597 -5.16093,2.31529 -5.16093,2.31529 z"
       id="path6581"
       inkscape:connector-curvature="0" />
    <g
       id="g6585"
       style="fill:#ff861a;fill-opacity:1;stroke:#000000;stroke-opacity:1"
       transform="matrix(-0.9563483,0.29222923,0.29222923,0.9563483,127.02631,-18.974536)">
      <path
         d="m 74.558414,171.8692 a 1.1362158,4.4430356 0 0 1 -1.427729,-0.78512 1.1362158,4.4430356 0 0 1 -0.08135,-5.62891 1.1362158,4.4430356 0 0 1 1.396017,-1.40914 l -0.4785,4.02982 z"
         sodipodi:end="5.1470845"
         sodipodi:start="1.0231918"
         sodipodi:ry="4.4430356"
         sodipodi:rx="1.1362158"
         sodipodi:cy="168.07585"
         sodipodi:cx="73.96685"
         sodipodi:type="arc"
         id="path6550"
         style="opacity:1;fill:#ff861a;fill-opacity:1;fill-rule:nonzero;stroke:#000000;stroke-width:0.26700598;stroke-miterlimit:4;stroke-dasharray:none;stroke-opacity:1" />
      <path
         d="m 76.056683,172.34492 a 1.5064545,4.8472509 0 0 1 -1.795508,-1.59081 1.5064545,4.8472509 0 0 1 0.05696,-5.98954 1.5064545,4.8472509 0 0 1 1.822378,-1.23459 l -0.667211,4.34591 z"
         sodipodi:end="5.1712217"
         sodipodi:start="1.1731465"
         sodipodi:ry="4.8472509"
         sodipodi:rx="1.5064545"
         sodipodi:cy="167.87589"
         sodipodi:cx="75.473305"
         sodipodi:type="arc"
         id="path6550-9"
         style="opacity:1;fill:#ff861a;fill-opacity:1;fill-rule:nonzero;stroke:#000000;stroke-width:0.3274861;stroke-miterlimit:4;stroke-dasharray:none;stroke-opacity:1" />
    </g>
    <path
       style="display:inline;opacity:0.62999998;fill:none;stroke:#000000;stroke-width:0.80257058;stroke-linecap:butt;stroke-linejoin:round;stroke-miterlimit:4;stroke-dasharray:none;stroke-opacity:1"
       d="m 103.76911,167.10842 c -5.144836,2.26598 -2.67547,1.18902 -2.67547,1.18902 z"
       id="path6581-2"
       inkscape:connector-curvature="0"
       sodipodi:nodetypes="ccc" />
    <path
       style="fill:#44c5ff;fill-opacity:1;stroke:#000000;stroke-width:0.86500001;stroke-linecap:butt;stroke-linejoin:miter;stroke-miterlimit:4;stroke-dasharray:none;stroke-opacity:1"
       d="m 96.734784,160.6144 c -1.428735,-2.00885 -2.18596,-4.49538 -5.319809,-5.29129 -0.712549,0.14642 -1.417406,0.50673 -2.105163,1.34195 -0.882482,-2.51921 -1.268959,-5.18997 -2.833467,-7.50078 -0.375204,0.36425 0.01101,1.87337 -1.05657,1.4582 1.37701,1.48795 0.29264,5.09239 0.545907,7.90284 l -15.708923,4.38094 -2.431815,-2.47081 c -14.251442,4.42861 -16.955798,6.76264 -25.407597,10.13923 -8.833581,5.3044 -13.667257,7.62556 -16.159667,13.88088 2.97856,8.40146 10.126709,9.97628 17.338572,11.47002 -0.341819,3.88931 -1.463518,7.71301 -0.04248,11.75067 -1.720186,4.66152 -0.661706,5.69799 -0.71346,8.18287 8.578505,4.8146 16.875702,4.18024 25.240914,4.86329 2.345355,-1.6918 3.385413,-3.1801 3.241139,-4.48375 -1.713491,-1.6596 -3.32647,-2.91985 -3.319362,-5.8327 -1.002811,-1.15932 -5.614,-2.21148 -5.974787,-4.46235 1.90483,-3.5327 -0.930313,-5.86404 -1.682813,-8.70825 0.4103,-1.42693 1.107921,-2.84661 3.741703,-4.21751 9.655185,-2.69955 19.367808,-5.21111 28.520995,-9.5535 1.353091,-1.71765 1.85409,-3.17492 1.845979,-4.47663 l 4.078996,-0.82721 c 0.886531,-2.44227 2.041449,-4.7875 1.32284,-7.81014 z"
       id="path6707"
       inkscape:connector-curvature="0"
       sodipodi:nodetypes="cccccccccccccccccccccccc" />
    <path
       style="fill:#4fb54e;fill-opacity:1;stroke:#000000;stroke-width:0.26458332px;stroke-linecap:butt;stroke-linejoin:miter;stroke-opacity:1"
       d="m 89.309812,156.66506 c 1.475662,0.45622 2.927981,0.14242 4.460664,2.47966 2.406081,3.72301 1.548787,2.59969 2.983794,6.09253 2.680237,5.76547 1.694726,9.00059 1.100728,10.47551 L 96.98526,178.354"
       id="path853"
       inkscape:connector-curvature="0"
       sodipodi:nodetypes="ccccc" />
    <path
       style="opacity:0.62999998;fill:#f11c3e;fill-opacity:1;fill-rule:nonzero;stroke:#000000;stroke-width:0.07723214;stroke-linejoin:round;stroke-miterlimit:4;stroke-dasharray:none;stroke-opacity:1"
       d="m 98.431482,177.16802 c 0.660604,-1.74669 0.918278,-2.58052 1.073306,-3.47324 0.180534,-1.03958 0.170954,-2.08563 -0.02748,-3.00115 0.04304,-0.17083 -1.616732,-7.1533 -2.636199,-8.90884 -0.09585,-0.28933 -0.532029,-1.01108 -0.759208,-1.3547 -0.130775,-0.19779 -0.426707,-0.66872 -0.657621,-1.04649 -0.433291,-0.70886 -0.684065,-1.09477 -0.904009,-1.39114 -0.83281,-1.12219 -1.721106,-1.7835 -2.878437,-2.1429 l -0.226211,-0.0702 -0.233385,0.0713 c -0.285023,0.0871 -0.553917,0.22077 -0.795422,0.39542 -0.174713,0.12635 -0.493698,0.41241 -0.472183,0.42344 0.0057,0.003 0.232211,0.0496 0.503364,0.1037 0.557181,0.11119 0.848403,0.18534 1.134903,0.28899 0.828903,0.29987 1.515995,0.85275 2.136136,1.71887 0.220364,0.30777 0.90175,1.37057 1.30914,2.04195 0.57895,0.9541 0.713221,1.2346 1.088288,2.27349 0.402838,1.11581 0.667407,1.78755 0.99429,2.52453 1.21381,2.73662 1.735426,5.22169 1.556726,7.41653 -0.06735,0.82722 -0.246702,1.6367 -0.536967,2.42352 -0.05631,0.15264 -0.26789,0.77864 -0.470176,1.39111 l -0.645077,1.50182 0.501616,0.25178 c 0.207255,-0.0405 0.460568,-0.0473 0.512794,-0.0624 v 0 z"
       id="path857"
       inkscape:connector-curvature="0"
       sodipodi:nodetypes="cccccccccsccsccssscccccccc" />
    <path
       style="fill:#919493;fill-opacity:1;stroke:#000000;stroke-width:0.26458332px;stroke-linecap:butt;stroke-linejoin:miter;stroke-opacity:1"
       d="m 89.160945,177.67071 -0.355131,-4.17385 c -0.51971,-2.13458 -0.997988,-4.28182 -1.866015,-6.30997 -0.625853,-1.28139 -1.123144,-3.07862 -1.873168,-4.31482 -0.50434,-1.26086 -1.508679,-2.19604 -2.551588,-3.29235 l -4.920355,1.50351 2.417612,2.19568 c 1.117437,1.09538 1.495623,2.89366 2.23658,4.34701 l 2.392818,7.37344 c 0.417077,1.52942 0.137455,2.25608 0.189963,3.36543 l -0.48812,0.9177 z"
       id="path869"
       inkscape:connector-curvature="0"
       sodipodi:nodetypes="cccccccccccc" />
    <path
       style="fill:none;stroke:#000000;stroke-width:0.26458332px;stroke-linecap:butt;stroke-linejoin:miter;stroke-opacity:1"
       d="m 85.066633,162.87207 -6.939247,-1.29845 v 0"
       id="path881"
       inkscape:connector-curvature="0" />
    <path
       style="fill:none;stroke:#000000;stroke-width:0.26458332px;stroke-linecap:butt;stroke-linejoin:miter;stroke-opacity:1"
       d="m 87.045164,167.39545 -5.311101,-0.97078 v 0"
       id="path883"
       inkscape:connector-curvature="0" />
    <path
       style="fill:none;stroke:#000000;stroke-width:0.26458332px;stroke-linecap:butt;stroke-linejoin:miter;stroke-opacity:1"
       d="m 88.443443,172.699 -4.691069,-0.96263 v 0"
       id="path885"
       inkscape:connector-curvature="0" />
    <path
       style="fill:none;stroke:#000000;stroke-width:0.26176px;stroke-linecap:butt;stroke-linejoin:miter;stroke-opacity:1"
       d="m 84.839242,177.23325 c 1.419229,-0.071 3.295661,0.70715 4.257683,-0.21288 v 0"
       id="path887"
       inkscape:connector-curvature="0"
       sodipodi:nodetypes="ccc" />
    <path
       style="opacity:0.82900002;fill:url(#radialGradient1769);fill-opacity:1;fill-rule:nonzero;stroke:#cdcdcc;stroke-width:0.13080357;stroke-linecap:round;stroke-linejoin:round;stroke-miterlimit:4;stroke-dasharray:none;stroke-opacity:1"
       d="m 86.775466,167.18583 c -0.002,-0.006 -0.07573,-0.17686 -0.163895,-0.37866 -0.08817,-0.2018 -0.243376,-0.58052 -0.344914,-0.84159 -0.611136,-1.57134 -0.7625,-1.94039 -0.96783,-2.35971 -0.14478,-0.29567 -0.307604,-0.58742 -0.335488,-0.60113 -0.04645,-0.0229 -6.306788,-1.18719 -6.313665,-1.17426 -0.0037,0.007 0.346491,0.33356 0.778307,0.7256 0.431814,0.39203 0.842429,0.78172 0.912475,0.86598 0.491976,0.59183 0.815069,1.20115 1.355272,2.5559 l 0.126936,0.31835 2.446465,0.44784 c 2.568654,0.47021 2.512003,0.46023 2.506337,0.44168 z"
       id="path948"
       inkscape:connector-curvature="0" />
    <path
       style="opacity:0.91000001;fill:url(#radialGradient985);fill-opacity:1;fill-rule:nonzero;stroke:#cdcdcc;stroke-width:0.49437571;stroke-linecap:round;stroke-linejoin:round;stroke-miterlimit:4;stroke-dasharray:none;stroke-opacity:1;filter:url(#filter1373)"
       d="m 355.34153,666.55132 c -0.14733,-0.0229 -0.50893,-0.12024 -0.80358,-0.21627 l -0.53571,-0.1746 -1.36887,-6.40591 c -1.38266,-6.47048 -1.51226,-7.24664 -1.52976,-9.16135 l -0.003,-0.34471 0.16658,0.20572 0.16658,0.20572 6.41825,-3.49407 c 3.53003,-1.92174 7.04101,-3.83534 7.80217,-4.25245 l 1.38392,-0.75837 0.0315,0.32894 c 0.0173,0.18091 -0.0157,3.00264 -0.0733,6.27051 -0.11085,6.28779 -0.0877,7.06803 0.27272,9.19236 0.18867,1.11206 0.56606,2.60088 0.92609,3.65346 0.12461,0.36432 0.2166,0.66618 0.20443,0.67081 -0.0122,0.005 -0.24311,0.082 -0.5132,0.17205 -0.8618,0.2872 -2.18947,0.83954 -4.09812,1.70494 -3.05003,1.38291 -4.24938,1.8468 -5.67867,2.19645 -0.70519,0.17251 -2.24741,0.28772 -2.76785,0.20677 z"
       id="path950"
       inkscape:connector-curvature="0"
       transform="matrix(-0.25303382,0.07731898,0.07731898,0.25303382,127.02631,-18.974536)" />
    <path
       style="fill:#000000;fill-opacity:0.81999966;stroke:#000000;stroke-width:0.26458332px;stroke-linecap:butt;stroke-linejoin:miter;stroke-opacity:1"
       d="m 88.974199,157.86396 -1.581461,0.48325 1.768499,1.58395 2.015776,3.03991 1.749699,4.10928 c 0.389877,1.51408 1.057342,2.97594 1.095781,4.55612 l -5.216678,1.86039 -26.614627,8.11323 c -3.459563,1.07355 -6.41084,2.12092 -10.378662,3.22074 -1.155518,-0.48595 -2.215339,-1.03996 -3.582166,-1.37559 -1.257943,-0.15889 -2.311329,-0.0793 -3.949898,0.16949 -0.958765,0.21089 -1.938873,0.14835 -2.869266,0.72276 0.185196,0.66425 0.11242,1.1913 0.149328,1.77669 -1.714228,1.49027 -3.163839,0.7068 -4.716686,0.81041 l -5.973188,-0.79317 -1.305343,-0.39159 1.845064,1.51116 4.214752,1.18229 4.70674,0.0439 0.126778,0.89993 c -1.616052,-0.0883 -3.230425,0.15415 -4.848576,-0.34637 -1.922854,-0.29777 -3.490515,-1.26331 -5.227648,-1.91025 l -1.207443,-0.71792 c 0.817454,1.09127 1.448211,2.42612 2.473901,3.24574 l 3.573389,2.31693 c 1.657344,0.82202 3.142826,1.80111 5.188735,2.26798 1.163527,0.43773 2.356673,0.52346 3.538235,0.74676 0.430202,-0.46001 0.613272,-1.02396 0.402872,-1.75343 -0.401236,-0.66134 -0.750664,-1.38593 -1.344263,-1.8124 l -1.831258,-1.46597 c 0.394242,-1.20607 0.673093,-2.54871 0.848421,-4.01392 l 0.686548,-1.14845 0.77442,0.10918 c 0.31442,0.65556 0.350962,1.04521 0.389833,1.69383 1.504383,-0.72746 2.821076,-1.38121 4.810182,-1.65247 l 7.966356,2.95073 37.072715,-11.57524 0.729006,2.66583 1.196383,-1.37684 c 0.01015,-1.77266 0.154226,-3.29661 -0.02767,-5.42593 -0.263874,-2.5991 -1.347231,-5.05566 -2.020848,-7.58349 -0.818578,-1.60077 -1.571537,-3.35752 -2.512827,-4.66656 -0.620278,-0.97259 -1.409048,-1.38352 -2.1149,-2.07087 z"
       id="path1851"
       inkscape:connector-curvature="0"
       sodipodi:nodetypes="ccccccccccccccccccccccccccccccccccccccccccc" />
    <path
       style="fill:#000000;fill-opacity:0.93000034;stroke:#000000;stroke-width:0.26458332px;stroke-linecap:butt;stroke-linejoin:miter;stroke-opacity:1"
       d="m 56.294731,191.0672 c 0.404557,0.13375 0.751823,-0.16606 1.219881,0.44818 0.576998,1.00654 0.317957,1.42418 -0.138873,1.94631 -0.98992,0.6254 -2.237807,0.88816 -3.372525,1.31 -0.599404,0.32365 -0.988575,0.86839 -1.38806,1.4023 -0.265095,1.03263 0.129005,1.03187 0.193505,1.54781 0.81797,1.02237 1.685471,1.68244 2.589777,2.0732 0.912856,1.80006 0.321558,2.3315 0.04797,3.12937 -0.214664,0.81801 -0.620017,1.3322 -0.743703,3.51101 0.452691,1.80177 1.005106,3.2722 1.641948,4.45884 1.338075,1.53382 2.260274,3.13997 3.262548,4.73219 0.621298,0.9387 1.45283,1.17658 2.197503,1.704 1.880935,0.21188 3.625411,1.02664 5.43515,1.55308 1.283713,-0.40972 1.491609,-1.02817 1.904573,-1.76972 0.108724,-0.46163 0.443559,-0.82816 0.268019,-1.40938 -1.040665,-0.31998 -1.195733,-0.98127 -1.716462,-1.50165 -0.171481,-1.11763 -0.459432,-2.22368 -0.856929,-3.31884 -0.615011,-0.46575 -1.118865,-1.01056 -1.942788,-1.3277 l -3.136492,-1.97601 -0.562273,-2.01153 0.225858,-1.20437 c 0.205534,-0.35423 0.06331,-0.76711 -0.118052,-1.1866 -0.595663,-0.40578 -1.170494,-0.40807 -1.747962,-0.46148 l -1.088968,0.43755 c -0.439942,0.8452 -0.567456,1.52916 -0.566649,2.1469 0.05507,0.53775 -0.01715,1.1352 0.299104,1.55049 0.90645,1.05575 2.085375,1.34957 3.069042,1.92675 1.244907,1.23747 2.713363,1.5765 4.072816,2.35363 0.345473,0.32592 0.128798,0.91543 0.192613,1.37343 -0.05726,1.36218 -1.048242,1.53049 -1.825154,1.97251 -2.429347,0.58639 -3.216564,-0.64813 -4.326198,-1.52514 l -3.053544,-5.47725 -0.682552,-5.20614 c 0.4921,-0.30004 0.673914,-0.9093 -0.02844,-2.43667 -0.935302,-0.90776 -1.748642,-0.77521 -2.8059,-2.7233 0.138803,-1.52365 0.469143,-1.91088 1.491882,-2.37721 1.040008,-0.52158 1.91009,-0.94093 3.120036,-1.56473 0.214114,-0.42987 0.694049,-0.68578 0.08918,-1.65165 z"
       id="path1853"
       inkscape:connector-curvature="0"
       sodipodi:nodetypes="ccccccccccccccccccccccccccccccccccccccc" />
    <path
       style="fill:#000000;fill-opacity:0.9;stroke:#000000;stroke-width:0.26458332px;stroke-linecap:butt;stroke-linejoin:miter;stroke-opacity:1"
       d="m 66.249387,219.18614 -5.704954,-1.75011 -2.366129,-2.14155 -1.952731,-3.49147 -0.698181,-1.35522 1.622925,3.65399 0.559809,1.50865 c -0.702735,0.62698 -1.493738,0.36662 -2.240724,0.54884 l -4.258351,-0.63788 -4.728726,-1.24754 c -0.704463,-0.23688 -0.747375,-1.57384 -0.856033,-2.80145 l 0.790581,-13.58054 c 0.03312,-1.41404 0.315464,-2.47773 -0.09544,-4.51596 -0.530857,-1.31867 -1.32401,-1.85552 -2.089823,-2.47384 L 42.32255,190.1515 c 0.96129,0.89868 1.988638,1.53185 2.836581,2.8861 0.532013,0.8161 0.339452,1.72797 0.378105,2.60928 l -0.752551,5.53986 -0.08423,6.69806 -0.181002,4.66654 0.209471,2.17174 c 0.677806,0.81925 1.564439,1.13195 2.48062,1.37295 l 9.038438,1.56992 z"
       id="path1855"
       inkscape:connector-curvature="0"
       sodipodi:nodetypes="cccccccccccccccccccccccc" />
    <path
       style="fill:none;stroke:#000000;stroke-width:0.26458332px;stroke-linecap:butt;stroke-linejoin:miter;stroke-opacity:1"
       d="m 46.098114,192.6808 3.261612,0.15617 v 0"
       id="path1869"
       inkscape:connector-curvature="0" />
    <path
       style="fill:none;stroke:#000000;stroke-width:0.26458332px;stroke-linecap:butt;stroke-linejoin:miter;stroke-opacity:1"
       d="m 46.321429,193.3759 3.992378,0.18261 v 0"
       id="path1871"
       inkscape:connector-curvature="0" />
    <path
       style="fill:none;stroke:#000000;stroke-width:0.26458332px;stroke-linecap:butt;stroke-linejoin:miter;stroke-opacity:1"
       d="m 46.423853,194.43275 4.195269,0.0106 v 0"
       id="path1875"
       inkscape:connector-curvature="0" />
    <path
       style="fill:none;stroke:#000000;stroke-width:0.26458332px;stroke-linecap:butt;stroke-linejoin:miter;stroke-opacity:1"
       d="m 46.028965,199.19959 6.422928,0.0984 v 0"
       id="path1877"
       inkscape:connector-curvature="0" />
    <path
       style="fill:none;stroke:#000000;stroke-width:0.26458332px;stroke-linecap:butt;stroke-linejoin:miter;stroke-opacity:1"
       d="m 46.205536,195.54747 4.131366,0.0301 v 0"
       id="path1879"
       inkscape:connector-curvature="0" />
    <path
       style="fill:none;stroke:#000000;stroke-width:0.26458332px;stroke-linecap:butt;stroke-linejoin:miter;stroke-opacity:1"
       d="m 46.20734,198.41147 5.13604,0.003 v 0"
       id="path1881"
       inkscape:connector-curvature="0" />
    <path
       style="fill:none;stroke:#000000;stroke-width:0.26458332px;stroke-linecap:butt;stroke-linejoin:miter;stroke-opacity:1"
       d="m 46.209107,197.50266 4.11895,0.10379 v 0"
       id="path1883"
       inkscape:connector-curvature="0" />
    <path
       style="fill:none;stroke:#000000;stroke-width:0.26458332px;stroke-linecap:butt;stroke-linejoin:miter;stroke-opacity:1"
       d="m 46.36352,196.40747 3.779918,0.13752 v 0"
       id="path1885"
       inkscape:connector-curvature="0" />
    <path
       style="fill:none;stroke:#000000;stroke-width:0.26458332px;stroke-linecap:butt;stroke-linejoin:miter;stroke-opacity:1"
       d="m 45.945544,200.41281 6.754863,-0.0728 v 0"
       id="path1887"
       inkscape:connector-curvature="0" />
    <path
       style="fill:none;stroke:#000000;stroke-width:0.26458332px;stroke-linecap:butt;stroke-linejoin:miter;stroke-opacity:1"
       d="m 46.482325,214.27385 8.795569,-0.46858 v 0"
       id="path1889"
       inkscape:connector-curvature="0" />
    <path
       style="fill:none;stroke:#000000;stroke-width:0.26458332px;stroke-linecap:butt;stroke-linejoin:miter;stroke-opacity:1"
       d="m 45.628849,212.98089 9.147584,-0.24506 v 0"
       id="path1891"
       inkscape:connector-curvature="0" />
    <path
       style="fill:none;stroke:#000000;stroke-width:0.26458332px;stroke-linecap:butt;stroke-linejoin:miter;stroke-opacity:1"
       d="m 45.438913,212.13065 8.811215,-0.31694 -0.0098,-0.0319"
       id="path1893"
       inkscape:connector-curvature="0" />
    <path
       style="fill:none;stroke:#000000;stroke-width:0.26458332px;stroke-linecap:butt;stroke-linejoin:miter;stroke-opacity:1"
       d="m 48.995199,214.85173 5.777703,-0.29828 v 0"
       id="path1895"
       inkscape:connector-curvature="0" />
    <path
       style="fill:none;stroke:#000000;stroke-width:0.26458332px;stroke-linecap:butt;stroke-linejoin:miter;stroke-opacity:1"
       d="m 45.626292,211.4724 6.61894,-0.61807 v 0"
       id="path1897"
       inkscape:connector-curvature="0" />
    <path
       style="fill:none;stroke:#000000;stroke-width:0.26458332px;stroke-linecap:butt;stroke-linejoin:miter;stroke-opacity:1"
       d="m 45.71845,209.84441 5.9419,-0.1039 0.03194,-0.01"
       id="path1899"
       inkscape:connector-curvature="0" />
    <path
       style="fill:none;stroke:#000000;stroke-width:0.26458332px;stroke-linecap:butt;stroke-linejoin:miter;stroke-opacity:1"
       d="m 45.850596,201.2453 5.759954,-0.0134 v 0"
       id="path1901"
       inkscape:connector-curvature="0" />
    <path
       style="fill:none;stroke:#000000;stroke-width:0.26458332px;stroke-linecap:butt;stroke-linejoin:miter;stroke-opacity:1"
       d="m 45.661636,208.7439 7.290034,0.078 v 0"
       id="path1903"
       inkscape:connector-curvature="0" />
    <path
       style="fill:none;stroke:#000000;stroke-width:0.26458332px;stroke-linecap:butt;stroke-linejoin:miter;stroke-opacity:1"
       d="m 45.701499,202.12927 6.464643,0.12062 v 0"
       id="path1905"
       inkscape:connector-curvature="0" />
    <path
       style="fill:none;stroke:#000000;stroke-width:0.26458332px;stroke-linecap:butt;stroke-linejoin:miter;stroke-opacity:1"
       d="m 45.382948,208.06052 6.895084,-0.18557 v 0"
       id="path1907"
       inkscape:connector-curvature="0" />
    <path
       style="fill:none;stroke:#000000;stroke-width:0.26458332px;stroke-linecap:butt;stroke-linejoin:miter;stroke-opacity:1"
       d="m 45.768115,207.03455 6.693618,-0.15895 v 0"
       id="path1909"
       inkscape:connector-curvature="0" />
    <path
       style="fill:none;stroke:#000000;stroke-width:0.26458332px;stroke-linecap:butt;stroke-linejoin:miter;stroke-opacity:1"
       d="m 45.958927,206.17277 5.548725,-0.0187 v 0"
       id="path1911"
       inkscape:connector-curvature="0" />
    <path
       style="fill:none;stroke:#000000;stroke-width:0.26458332px;stroke-linecap:butt;stroke-linejoin:miter;stroke-opacity:1"
       d="m 45.759228,205.29058 5.480387,-0.24234 v 0"
       id="path1913"
       inkscape:connector-curvature="0" />
    <path
       style="fill:none;stroke:#000000;stroke-width:0.26458332px;stroke-linecap:butt;stroke-linejoin:miter;stroke-opacity:1"
       d="m 45.562183,204.30279 5.43602,-0.15892 0.0098,0.0319"
       id="path1915"
       inkscape:connector-curvature="0" />
    <path
       style="fill:none;stroke:#000000;stroke-width:0.26458332px;stroke-linecap:butt;stroke-linejoin:miter;stroke-opacity:1"
       d="m 45.873693,203.2644 6.035082,-0.0276 v 0"
       id="path1917"
       inkscape:connector-curvature="0" />
    <path
       style="fill:none;stroke:#000000;stroke-width:0.76499999;stroke-linecap:butt;stroke-linejoin:miter;stroke-miterlimit:4;stroke-dasharray:none;stroke-opacity:1"
       d="m 43.93291,194.4515 -0.336658,1.47408 v 0"
       id="path1919"
       inkscape:connector-curvature="0"
       sodipodi:nodetypes="ccc" />
    <path
       style="opacity:0.82900002;fill:#e2d6e3;fill-opacity:0.9;fill-rule:nonzero;stroke:#cdcdcc;stroke-width:0.38638332;stroke-linecap:round;stroke-linejoin:round;stroke-miterlimit:4;stroke-dasharray:none;stroke-opacity:1"
       d="m 60.906002,216.98938 c -1.037056,-0.66782 -1.091346,-0.73036 -2.422689,-2.79082 -0.637532,-0.98668 -1.414954,-2.11217 -1.727605,-2.50108 -0.720081,-0.89574 -1.255328,-2.03229 -1.816431,-3.85709 -0.40496,-1.31712 -0.432476,-1.51871 -0.322448,-2.36599 0.06615,-0.50941 0.262182,-1.35981 0.43562,-1.88977 0.704532,-2.1528 0.710147,-2.18667 0.484786,-2.92419 -0.197564,-0.64655 -0.265776,-0.7265 -0.961371,-1.12682 -1.402973,-0.80742 -2.302779,-2.03096 -2.206299,-3.0001 0.05625,-0.56503 0.881675,-1.57347 1.540954,-1.8826 2.938379,-1.37779 3.258741,-1.55003 3.483101,-1.8726 0.362638,-0.52138 0.150155,-1.03144 -0.535607,-1.28569 -0.303359,-0.11247 -0.575832,-0.28393 -0.605501,-0.38103 -0.06491,-0.21241 -0.0757,-0.20826 0.48536,-0.18644 0.831184,0.0323 1.518539,1.20292 1.195477,2.03594 -0.219518,0.56604 -0.68554,0.85601 -2.494198,1.55192 -0.864039,0.33245 -1.666252,0.70022 -1.782695,0.81726 -0.29722,0.29874 -0.639423,1.14668 -0.619707,1.53556 0.0269,0.53073 0.76923,1.43269 1.707013,2.0741 1.016966,0.69557 1.151078,0.88379 1.396704,1.9602 0.147544,0.64658 0.137778,0.86904 -0.05128,1.16801 -0.20767,0.32841 -0.196969,0.64581 0.09659,2.86559 l 0.330128,2.49628 1.50919,2.70474 c 1.289061,2.31021 1.601281,2.78306 2.140552,3.24178 1.289658,1.09701 2.328708,1.29673 3.775788,0.72577 1.179025,-0.4652 1.539442,-1.07061 1.368813,-2.29926 -0.07288,-0.52483 -0.08331,-0.53336 -1.411379,-1.15541 -0.735873,-0.34467 -1.6926,-0.89558 -2.126058,-1.22426 -0.433461,-0.32867 -1.284293,-0.85469 -1.890741,-1.16893 -1.456845,-0.75488 -1.8898,-1.20076 -2.073056,-2.13492 -0.151505,-0.7723 -0.0092,-1.95621 0.322005,-2.67842 0.176262,-0.38438 0.315984,-0.48902 0.945505,-0.70812 0.630161,-0.21931 0.848615,-0.22835 1.486983,-0.0615 0.686676,0.17947 0.765321,0.23958 0.954973,0.72992 0.159436,0.41223 0.165676,0.72006 0.02731,1.34693 -0.247166,1.11975 -0.123572,1.38924 0.241566,0.52674 0.645173,-1.52397 0.51522,-2.62897 -0.568622,-4.83497 -1.579402,-3.21464 -1.561734,-3.11579 -0.822812,-4.60358 0.512994,-1.03289 1.215772,-1.80977 2.296025,-2.53812 0.775734,-0.52303 0.925379,-0.57195 9.591959,-3.13511 10.24303,-3.02941 13.758819,-4.25452 18.94895,-6.60295 l 1.147501,-0.51923 0.671172,-1.16407 c 0.627153,-1.08773 1.078695,-2.62339 0.922082,-3.13592 -0.02879,-0.0942 0.0052,-0.18886 0.07546,-0.21034 0.07393,-0.0226 0.0034,-0.44623 -0.16736,-1.00499 l -0.29516,-0.96594 -14.96276,4.65068 c -8.229519,2.55788 -16.520476,5.16217 -18.424352,5.78731 l -3.461589,1.13663 -3.957281,-1.46964 c -2.176504,-0.8083 -4.152999,-1.46626 -4.39221,-1.46213 -0.623774,0.0108 -2.305907,0.55529 -3.545626,1.14775 l -1.065871,0.50939 -0.182867,-0.88446 c -0.16143,-0.78077 -0.21568,-0.89086 -0.462787,-0.93912 -0.433873,-0.0847 -0.878344,0.7286 -1.062501,1.94428 -0.08662,0.57178 -0.264544,1.42265 -0.395389,1.89081 -0.130848,0.46815 -0.220401,0.90847 -0.199009,0.97848 0.05467,0.17891 1.392847,1.26465 1.442843,1.17065 0.02258,-0.0424 -0.143452,-0.2392 -0.36895,-0.43724 -0.629591,-0.55294 -0.319274,-0.65007 0.769897,-0.24098 0.904941,0.33989 2.358869,1.37152 2.476775,1.75737 0.09472,0.30999 0.525674,0.41258 2.020184,0.48093 0.931574,0.0426 1.521997,0.13614 1.555708,0.24646 0.02988,0.0978 0.0369,0.18313 0.01561,0.18963 -0.02131,0.007 -0.722148,-0.0235 -1.557456,-0.0667 -1.036626,-0.0536 -1.502942,-0.0268 -1.468977,0.0843 0.02811,0.092 0.711622,0.18963 1.570708,0.22438 2.304131,0.0932 2.515455,0.12051 2.413714,0.31178 -0.06062,0.11398 -0.678825,0.14278 -1.900847,0.0886 -0.996053,-0.0442 -1.82616,-0.0757 -1.844682,-0.0701 -0.01852,0.006 -0.01791,0.15618 0.0014,0.33449 0.03347,0.30962 0.125053,0.32405 2.036626,0.32088 1.179482,-0.002 2.022167,0.0621 2.051693,0.15603 0.07061,0.22474 0.0322,0.22898 -2.027176,0.22438 -1.865734,-0.004 -2.152693,0.076 -1.909999,0.5336 0.08374,0.15788 0.561545,0.21754 1.829594,0.22845 1.149359,0.01 1.734818,0.0755 1.772452,0.19868 0.03091,0.10114 -0.02299,0.18197 -0.119781,0.17961 -0.90997,-0.0222 -3.394443,-0.0138 -3.477929,0.0117 -0.05868,0.0179 -0.07512,0.13593 -0.03654,0.26221 0.05514,0.18046 0.431167,0.23618 1.756346,0.26028 1.005351,0.0183 1.706627,0.0976 1.736818,0.19638 0.07196,0.2355 0.0076,0.24166 -1.838804,0.17611 -1.675146,-0.0595 -1.872137,-0.003 -1.727914,0.4914 0.02435,0.0833 0.86719,0.16979 1.873124,0.19215 1.076639,0.0239 1.84951,0.10788 1.878907,0.20408 0.06887,0.2254 0.08706,0.22372 -1.937275,0.17873 -1.537522,-0.0342 -1.814566,-0.007 -1.864812,0.18439 -0.03245,0.12348 -0.0078,0.24642 0.05484,0.27318 0.06262,0.0268 1.134509,0.0449 2.38198,0.0403 1.37062,-0.005 2.287616,0.0554 2.317378,0.15281 0.02709,0.0887 0.01267,0.17236 -0.03204,0.18602 -0.04471,0.0137 -1.12018,0.0242 -2.389925,0.0233 -1.820412,-0.001 -2.320187,0.0407 -2.363282,0.19814 -0.04173,0.15243 0.643385,0.2145 2.89645,0.26244 1.900349,0.0404 2.969835,0.12409 3.003714,0.23496 0.02894,0.0947 0.03404,0.17786 0.01136,0.1848 -0.0227,0.007 -1.37691,-0.0104 -3.009375,-0.0386 l -2.968121,-0.0512 -0.01559,0.40092 c -0.0086,0.22051 0.03056,0.40993 0.08698,0.42093 0.05641,0.011 1.464639,0.002 3.129395,-0.0206 1.978367,-0.0265 3.044764,0.0181 3.07861,0.12889 0.02848,0.0932 0.02437,0.17784 -0.0091,0.18807 -0.03351,0.0102 -1.453,0.0349 -3.154441,0.0548 -2.073678,0.0243 -3.122941,0.0916 -3.182761,0.20401 -0.05615,0.10557 -0.03205,0.19387 0.06502,0.23814 0.08484,0.0387 1.268733,0.065 2.630881,0.0584 1.593573,-0.008 2.495134,0.0486 2.528525,0.15787 0.02854,0.0934 0.02849,0.17698 -1.49e-4,0.18574 -0.02862,0.009 -1.193298,0.0176 -2.588166,0.0197 -1.394868,0.002 -2.579736,0.0535 -2.633039,0.11415 -0.306398,0.34888 0.20804,0.43586 2.772354,0.46874 1.523836,0.0195 2.839192,0.0679 2.923017,0.10748 0.487862,0.23034 -0.293434,0.30316 -2.877452,0.2682 -1.597518,-0.0216 -2.912396,-0.0246 -2.921948,-0.007 -0.0096,0.018 -0.009,0.18717 0.0013,0.37602 0.0184,0.33916 0.05278,0.34304 2.81055,0.31773 1.813985,-0.0166 2.810085,0.0338 2.843783,0.1441 0.02853,0.0934 0.01884,0.17983 -0.02153,0.19216 -0.04036,0.0123 -1.332123,0.0263 -2.870577,0.0309 -1.538454,0.005 -2.807055,0.0308 -2.819112,0.058 -0.01205,0.0272 -0.02169,0.17513 -0.02141,0.32876 4.65e-4,0.25325 0.158427,0.27432 1.693544,0.22588 2.813184,-0.0888 3.150701,-0.0846 3.188462,0.0389 0.06192,0.20265 -0.339375,0.25043 -2.625478,0.31261 -1.217444,0.0331 -2.249796,0.1015 -2.294115,0.15196 -0.04432,0.0505 -0.0506,0.18989 -0.01394,0.30984 0.05362,0.17546 0.530949,0.19607 2.442642,0.10545 1.306801,-0.0619 2.44423,-0.0814 2.527622,-0.0432 0.43789,0.2004 -0.210562,0.31 -2.478863,0.41896 -2.41916,0.11621 -2.696492,0.17652 -2.589371,0.5631 0.01152,0.0413 1.229871,0.0706 2.707591,0.0649 1.477717,-0.006 2.71838,0.004 2.757022,0.0215 0.03865,0.0175 0.03146,0.10477 -0.01601,0.19399 -0.05588,0.10505 -1.029642,0.16258 -2.763121,0.16326 -2.230917,8.8e-4 -2.679338,0.0367 -2.69183,0.21529 -0.0082,0.11784 0.01002,0.22755 0.0406,0.24381 0.03056,0.0162 1.470064,-0.008 3.198869,-0.0543 1.951392,-0.052 3.162388,-0.0234 3.193678,0.0754 0.02786,0.0876 -0.0076,0.177 -0.07857,0.19867 -0.07093,0.0217 -1.460484,0.069 -3.087901,0.10516 -1.627411,0.0362 -3.048366,0.0931 -3.157674,0.12647 -0.109306,0.0334 -0.193905,0.17921 -0.187998,0.32402 0.0096,0.23499 0.288407,0.25607 2.593767,0.19607 1.420664,-0.037 2.817727,-0.0708 3.104581,-0.0752 0.286855,-0.004 0.546316,0.073 0.576581,0.17207 0.03396,0.11114 -0.03822,0.18129 -0.188541,0.18324 -2.738637,0.0355 -5.937293,0.19589 -6.076168,0.30466 -0.157569,0.12341 -0.1524,0.14612 0.04081,0.17937 0.121679,0.0209 1.717226,0.0479 3.545664,0.06 2.006962,0.0132 3.344123,0.0851 3.374121,0.18139 0.02735,0.0877 0.004,0.17346 -0.05193,0.19054 -0.05589,0.0171 -1.655867,0.0135 -3.555501,-0.008 -3.32516,-0.0375 -3.453512,-0.0283 -3.44402,0.24891 0.0054,0.15835 0.01928,0.32155 0.0308,0.36268 0.01147,0.0411 1.303145,0.0524 2.870282,0.025 1.818624,-0.0318 2.867626,0.0101 2.899893,0.11565 0.02781,0.091 0.007,0.17712 -0.04632,0.19138 -0.05326,0.0143 -1.378468,0.0457 -2.944859,0.07 -1.566392,0.0242 -2.849457,0.0564 -2.851255,0.0714 -0.05734,0.4804 -0.06393,1.23367 -0.01064,1.21739 0.123248,-0.0377 6.066821,-0.58619 6.277892,-0.57938 0.139804,0.005 0.17193,0.0592 0.10673,0.18181 -0.0652,0.12258 -0.999255,0.25942 -3.103291,0.45462 -3.16269,0.29341 -3.404022,0.32932 -3.352252,0.49874 0.01766,0.0578 1.8807,0.0327 4.140082,-0.0557 3.6703,-0.14366 4.673321,-0.11223 4.537993,0.14219 -0.02275,0.0428 -1.967755,0.14745 -4.322237,0.23262 -3.330026,0.12045 -4.278431,0.19722 -4.269875,0.3456 0.0061,0.10491 0.05292,0.21304 0.104126,0.24028 0.05122,0.0272 1.9815,-0.002 4.289516,-0.0644 4.912368,-0.13334 4.627455,-0.13869 4.508662,0.0847 -0.06318,0.11877 -1.439949,0.20848 -4.420099,0.28799 -2.380588,0.0635 -4.3505,0.15715 -4.377586,0.20807 -0.02708,0.0509 0.06044,0.26153 0.194512,0.46801 l 0.243755,0.37544 4.432202,-0.23203 c 2.901167,-0.15187 4.449274,-0.17615 4.481623,-0.0703 0.02718,0.0889 0.01903,0.17102 -0.01812,0.18237 -0.03715,0.0113 -1.68343,0.10322 -3.658404,0.20416 -1.974973,0.10093 -3.609445,0.21845 -3.632161,0.26116 -0.104861,0.19714 1.059,0.22605 3.638291,0.0904 3.349222,-0.17619 3.229521,-0.1777 3.114008,0.0395 -0.06111,0.11489 -0.81264,0.20593 -2.329954,0.28224 -1.231862,0.0619 -2.259754,0.15024 -2.284205,0.19621 -0.02445,0.046 1.169108,0.27383 2.652358,0.50636 2.571876,0.40319 4.007772,0.44188 4.421087,0.11914 0.259594,-0.20271 -0.167809,-1.37415 -1.725124,-4.7283 -0.160822,-0.34639 -0.16818,-0.47262 -0.03,-0.51484 0.100682,-0.0308 0.26148,0.093 0.357332,0.27508 0.09585,0.18206 0.690909,1.26669 1.322354,2.41029 1.111237,2.01254 1.184743,2.11214 2.290436,3.10325 0.985315,0.88321 1.810785,1.38792 2.116966,1.29437 0.04731,-0.0145 -0.261666,-0.25017 -0.686599,-0.52381 z"
       id="path1921"
       inkscape:connector-curvature="0" />
    <path
       style="fill:none;stroke:#000000;stroke-width:0.26458332px;stroke-linecap:butt;stroke-linejoin:miter;stroke-opacity:1"
       d="m 92.950683,177.99122 -1.866362,0.52094 0.09036,-0.0276"
       id="path1929"
       inkscape:connector-curvature="0" />
    <path
       style="fill:#000000;fill-opacity:0.79500002;stroke:#000000;stroke-width:0.26458332px;stroke-linecap:butt;stroke-linejoin:miter;stroke-opacity:1"
       d="m 82.231883,181.06892 1.206222,3.13907 -11.764327,3.05136 c -1.704293,0.51241 -3.399635,1.05409 -5.17489,1.33427 -0.658265,-1.61678 -1.568703,-1.38879 -2.463845,-1.27268 l -5.692006,1.09705 -0.534687,-0.13304 23.613976,-7.11685 0.08536,0.76437 -7.736608,2.16644 -0.109187,0.77442 -2.111119,1.33674 -0.470671,0.88487 11.8685,-3.03378 -1.353056,-2.64957 -0.03389,-0.43428 z"
       id="path1931"
       inkscape:connector-curvature="0"
       sodipodi:nodetypes="ccccccccccccccccc" />
    <path
       style="fill:#ff861a;fill-opacity:0.98000002;stroke:#000000;stroke-width:0.465;stroke-linecap:butt;stroke-linejoin:miter;stroke-miterlimit:4;stroke-dasharray:none;stroke-opacity:1"
       d="m 73.894149,190.48376 0.31631,1.68188 c -0.303901,0.95132 -1.080196,1.16739 -1.843771,1.40325 l -2.722376,1.2765 c -1.722211,2.23816 -1.384241,4.67066 -0.837084,7.12289 -0.360903,1.05791 -1.082394,0.45196 -1.750915,0.0904 -0.499395,-1.69009 -1.510361,-2.79178 -1.316695,-5.27907 0.136507,-1.71359 0.608848,-3.12432 1.290235,-4.34654 z"
       id="path1935"
       inkscape:connector-curvature="0"
       sodipodi:nodetypes="ccccccccc" />
    <path
       style="fill:#000000;fill-opacity:0.71499999;stroke:#000000;stroke-width:0.26458332px;stroke-linecap:butt;stroke-linejoin:miter;stroke-opacity:1"
       d="m 73.045683,190.94063 c -0.03777,0.86799 -0.207037,1.42166 -0.589896,1.46476 -1.917344,0.51645 -3.318208,1.48184 -4.607567,2.5442 -0.658576,0.45027 -0.5361,1.21087 -0.719168,1.85007 l 0.248568,4.37037 -0.46692,-1.04301 c -0.358522,-1.83118 -0.129532,-2.96688 -0.0854,-4.32141 0.07091,-1.38465 0.629103,-2.32985 1.060358,-3.38953 z"
       id="path1937"
       inkscape:connector-curvature="0"
       sodipodi:nodetypes="ccccccccc" />
    <path
       style="fill:#ff861a;fill-opacity:0.84500003;stroke:#000000;stroke-width:0.26458332000000001px;stroke-linecap:butt;stroke-linejoin:miter;stroke-opacity:1"
       d="m 75.172929,183.79648 0.667415,0.35499 -0.288443,0.54228 -1.883292,0.92481 -0.593729,0.91503 -1.994787,0.56134 1.379723,-1.31662 1.202067,-0.905 0.109187,-0.77442 z"
       id="path1939"
       inkscape:connector-curvature="0" />
    <path
       style="fill:#000000;fill-opacity:0.83999999;stroke:#000000;stroke-width:0.26458332px;stroke-linecap:butt;stroke-linejoin:miter;stroke-opacity:1"
       d="m 61.15209,194.37733 -1.507399,1.69569 -0.399118,1.60407 0.579894,1.89776 c -1.71983,-0.047 -3.844532,0.24391 -6.024669,-2.90181 0.908337,-1.71681 4.340388,-2.63049 7.351303,-2.29567 z"
       id="path1941"
       inkscape:connector-curvature="0"
       sodipodi:nodetypes="cccccc" />
    <path
       style="fill:none;stroke:#000000;stroke-width:0.26458332px;stroke-linecap:butt;stroke-linejoin:miter;stroke-opacity:1"
       d="m 82.948599,184.06116 -8.152044,3.23204 v 0"
       id="path1943"
       inkscape:connector-curvature="0" />
    <path
       style="fill:none;stroke:#000000;stroke-width:0.26458332px;stroke-linecap:butt;stroke-linejoin:miter;stroke-opacity:1"
       d="m 79.508312,186.54509 -19.711779,6.46792 v 0"
       id="path1945"
       inkscape:connector-curvature="0" />
    <path
       style="fill:none;stroke:#000000;stroke-width:0.26458332px;stroke-linecap:butt;stroke-linejoin:miter;stroke-opacity:1"
       d="m 83.322651,186.41703 -7.459219,2.42751 0.04523,-0.0138"
       id="path1947"
       inkscape:connector-curvature="0" />
    <path
       style="opacity:0.82900002;fill:#000000;fill-opacity:0.44500002;fill-rule:nonzero;stroke:#000000;stroke-width:0.38590929;stroke-linecap:round;stroke-linejoin:round;stroke-miterlimit:4;stroke-dasharray:none;stroke-opacity:1"
       id="path1951"
       sodipodi:type="arc"
       sodipodi:cx="11.793284"
       sodipodi:cy="193.57019"
       sodipodi:rx="2.1314754"
       sodipodi:ry="2.3151042"
       sodipodi:start="5.1726128"
       sodipodi:end="5.1482616"
       d="m 12.739976,191.49597 a 2.1314754,2.3151042 0 0 1 0.968738,3.08982 2.1314754,2.3151042 0 0 1 -2.8388,1.07099 2.1314754,2.3151042 0 0 1 -1.003302,-3.07679 2.1314754,2.3151042 0 0 1 2.826585,-1.10845 l -0.899913,2.09865 z"
       transform="matrix(-0.9563483,0.29222923,0.29222923,0.9563483,0,0)" />
    <path
       style="fill:none;stroke:#858387;stroke-width:0.26458332px;stroke-linecap:butt;stroke-linejoin:miter;stroke-opacity:1"
       d="m 59.796533,193.01301 -2.420794,0.44868 v 0"
       id="path1953"
       inkscape:connector-curvature="0" />
    <path
       style="fill:none;stroke:#9d9e9c;stroke-width:0.26458332px;stroke-linecap:butt;stroke-linejoin:miter;stroke-opacity:1"
       d="m 94.1732,179.89022 -17.706064,7.53475 0.02268,-0.005"
       id="path1957"
       inkscape:connector-curvature="0" />
    <path
       style="fill:#f2e22f;fill-opacity:0.9;stroke:#000000;stroke-width:0.26458332px;stroke-linecap:butt;stroke-linejoin:miter;stroke-opacity:1"
       d="m 90.050071,178.03769 1.739658,3.91474 -0.858508,0.26233 -1.760504,-3.88329 z"
       id="path1923"
       inkscape:connector-curvature="0" />
    <path
       style="fill:#f2e22f;fill-opacity:0.9;stroke:#000000;stroke-width:0.26458332px;stroke-linecap:butt;stroke-linejoin:miter;stroke-opacity:1"
       d="m 89.15568,182.91236 -1.824774,-3.91391 -0.98558,0.31862 1.815007,3.88196 z"
       id="path1925"
       inkscape:connector-curvature="0" />
    <path
       style="fill:#f2e22f;fill-opacity:0.9;stroke:#000000;stroke-width:0.26458332px;stroke-linecap:butt;stroke-linejoin:miter;stroke-opacity:1"
       d="m 86.379988,183.60331 -1.950351,-3.75326 -0.862659,0.2636 1.905977,3.83669 z"
       id="path1927"
       inkscape:connector-curvature="0" />
    <path
       style="opacity:0.82900002;fill:#828f7d;fill-opacity:0.44500002;fill-rule:nonzero;stroke:#53504e;stroke-width:0.11743023;stroke-linecap:round;stroke-linejoin:round;stroke-miterlimit:4;stroke-dasharray:none;stroke-opacity:1"
       d="m 64.131142,214.1 c 0.242966,-0.12499 0.532741,-0.29158 0.643944,-0.37019 0.242342,-0.1713 0.511926,-0.58872 0.563873,-0.87307 0.05304,-0.29033 0.05965,-1.27507 0.0097,-1.44209 -0.02898,-0.0966 -0.336805,-0.28077 -1.003383,-0.59999 -1.45906,-0.69872 -2.350142,-1.2026 -2.723881,-1.54028 -0.199954,-0.18067 -0.834518,-0.56741 -1.555076,-0.94776 -1.659992,-0.87622 -2.16064,-1.35 -2.24556,-2.125 -0.07206,-0.65768 -0.07045,-1.18483 0.005,-1.62275 0.07585,-0.44042 0.334469,-1.2155 0.478896,-1.43522 0.04036,-0.0614 0.332299,-0.21808 0.648756,-0.34819 0.55955,-0.23007 0.589936,-0.23515 1.10469,-0.18458 0.331585,0.0326 0.688091,0.12815 0.954354,0.25584 l 0.425038,0.20384 0.135181,0.44309 c 0.113571,0.37213 0.120615,0.49232 0.04407,0.75066 -0.249083,0.84068 -0.305764,1.78978 -0.09818,1.64396 0.157576,-0.11069 0.552648,-1.19737 0.636038,-1.74947 0.176683,-1.16979 -0.06524,-2.08756 -1.073793,-4.07352 -0.404824,-0.79715 -0.749606,-1.56831 -0.925891,-2.0709 l -0.280872,-0.8008 0.177319,-0.52935 c 0.09755,-0.29115 0.302327,-0.76433 0.455086,-1.05152 0.152755,-0.28719 0.261799,-0.51729 0.242321,-0.51134 -0.01948,0.006 -0.243169,0.23937 -0.497088,0.5187 -0.453698,0.4991 -0.464969,0.52113 -0.652964,1.27617 l -0.191295,0.76831 0.314173,1.02816 c 0.172796,0.56549 0.303344,1.03147 0.29011,1.03552 -0.146838,0.0449 -2.052494,-0.0811 -2.504539,-0.16551 -0.795089,-0.14852 -1.990162,-0.77494 -2.615488,-1.37094 -0.48927,-0.46632 -1.210931,-1.37113 -1.230396,-1.54264 -0.01983,-0.17468 0.587589,-0.87087 1.009658,-1.15723 0.64624,-0.43845 1.173601,-0.65854 2.310722,-0.96434 1.220027,-0.3281 1.975987,-0.41724 3.26712,-0.38526 0.462582,0.0114 0.874138,-0.005 0.914566,-0.0366 0.05027,-0.0393 0.09191,0.003 0.131719,0.1331 l 0.05821,0.1905 0.365097,-0.34855 c 0.412252,-0.39357 1.275217,-1.00764 1.836173,-1.30659 0.300899,-0.16036 1.3117,-0.46186 5.102338,-1.52193 5.087321,-1.42268 12.921893,-3.83188 15.140688,-4.65588 3.089172,-1.14723 5.408285,-2.08863 7.421217,-3.01249 1.265734,-0.58093 1.166311,-0.49421 1.861136,-1.62333 0.306199,-0.49759 0.82042,-1.70614 0.742875,-1.74595 -0.03202,-0.0164 -1.428454,0.55686 -1.967707,0.80782 -0.207601,0.0966 -0.249649,0.14295 -0.200285,0.2207 0.03436,0.0541 0.131807,0.25801 0.216538,0.45307 l 0.154056,0.35467 -0.578486,0.17676 c -0.644652,0.19699 -0.579328,0.22289 -0.833411,-0.33039 -0.05995,-0.13055 -0.126155,-0.24648 -0.147126,-0.25764 -0.02098,-0.0112 -0.355412,0.115 -0.743204,0.28032 l -0.705073,0.30059 0.138684,0.27987 c 0.260945,0.52659 0.29047,0.47802 -0.423146,0.69608 -0.700425,0.21402 -0.659055,0.22507 -0.854867,-0.22785 -0.06586,-0.15234 -0.07351,-0.15201 -0.605548,0.0258 -0.752304,0.25143 -0.817371,0.29749 -0.746782,0.52849 0.05782,0.18921 0.05568,0.19127 -0.30901,0.30347 -0.201931,0.0622 -0.469601,0.16374 -0.594738,0.2258 -0.201806,0.10008 -0.232098,0.0979 -0.26798,-0.0196 -0.02225,-0.0728 -0.07325,-0.14101 -0.113343,-0.15155 -0.04009,-0.0105 -1.458202,0.57028 -3.151364,1.2907 -1.693159,0.72043 -2.967915,1.28584 -2.832786,1.25647 0.206257,-0.0448 0.252845,-0.03 0.290283,0.0926 l 0.0446,0.14594 -2.079526,0.68275 c -1.143734,0.37552 -4.823039,1.58189 -8.176222,2.68084 -3.353183,1.09896 -6.838751,2.24483 -7.7457,2.5464 -1.445434,0.48062 -1.80669,0.57788 -2.926323,0.7879 -1.052747,0.19746 -1.331453,0.27026 -1.585221,0.41407 -0.169345,0.096 -0.818298,0.35619 -1.442122,0.57828 -1.844479,0.65665 -2.257001,0.94727 -2.502353,1.76287 -0.203671,0.67704 -0.185621,0.91524 0.104329,1.37678 0.378872,0.60309 0.762031,0.97519 1.579032,1.53344 0.419389,0.28657 0.815481,0.57372 0.880203,0.63811 0.06981,0.0695 0.209949,0.41614 0.344556,0.85242 0.197088,0.63866 0.219774,0.78098 0.172785,1.08242 -0.03204,0.20555 -0.125931,0.42887 -0.230265,0.54766 -0.09689,0.11033 -0.170591,0.21991 -0.163769,0.24351 0.0067,0.0236 0.147788,1.10195 0.313257,2.39633 0.165473,1.29438 0.329481,2.44741 0.364461,2.56228 0.03496,0.11488 0.725887,1.396 1.535347,2.84694 l 1.471749,2.63809 0.610332,0.52111 c 0.33568,0.28661 0.805245,0.62479 1.043475,0.7515 0.868656,0.46204 2.037071,0.45007 2.971065,-0.0304 z m 11.72674,-25.22892 c -0.04636,-0.15173 -0.0447,-0.15262 0.916128,-0.48875 0.529419,-0.1852 2.214997,-0.73956 3.745731,-1.23191 l 2.783156,-0.89517 0.04892,0.16011 0.04892,0.16011 -3.384265,1.10013 c -1.861345,0.60507 -3.548039,1.15579 -3.748207,1.22381 -0.344238,0.11698 -0.366462,0.11544 -0.410393,-0.0283 z"
       id="path1959"
       inkscape:connector-curvature="0" />
    <path
       style="fill:#ff861a;fill-opacity:0.99000001;stroke:#000000;stroke-width:0.26458332000000001px;stroke-linecap:butt;stroke-linejoin:miter;stroke-opacity:1"
       d="m 85.551439,156.68668 c -2.180264,-4.02403 -4.547041,-3.48479 -6.76458,-3.78729 1.647348,1.76333 2.313329,3.06177 1.890912,4.73309 -1.452787,-2.09866 -3.458768,-3.39765 -6.867488,-2.66897 1.660429,1.2675 2.718,2.59257 1.270241,4.15699 -2.148813,-1.67965 -4.257211,-1.55507 -6.359764,-1.16908 0.460005,0.91885 2.343806,1.68711 1.050568,2.7914 l -1.195516,0.29118 1.680938,1.87223 15.708925,-4.38094 z"
       id="path1961"
       inkscape:connector-curvature="0"
       sodipodi:nodetypes="ccccccccccc" />
    <path
       style="fill:none;stroke:#ffffff;stroke-width:0.26499999;stroke-linecap:round;stroke-linejoin:miter;stroke-miterlimit:4;stroke-dasharray:none;stroke-opacity:1;filter:url(#filter3470)"
       d="m 95.344492,151.21931 c -0.301081,0.50017 -1.459217,2.45762 0.07087,4.51209"
       id="path1965"
       inkscape:connector-curvature="0"
       sodipodi:nodetypes="cc"
       transform="rotate(163.00854,87.855672,153.47535)" />
    <path
       style="display:inline;fill:none;stroke:#ffffff;stroke-width:0.26499999;stroke-linecap:round;stroke-linejoin:miter;stroke-miterlimit:4;stroke-dasharray:none;stroke-opacity:1;filter:url(#filter3442)"
       d="m 95.509857,151.85714 c -0.301081,0.50017 -1.624582,1.81979 -0.09449,3.87426"
       id="path1965-9"
       inkscape:connector-curvature="0"
       sodipodi:nodetypes="cc"
       transform="rotate(163.00854,85.298176,154.00832)" />
    <path
       style="opacity:0.71600001;fill:none;stroke:#fffff6;stroke-width:0.465;stroke-linecap:round;stroke-linejoin:miter;stroke-miterlimit:4;stroke-dasharray:none;stroke-opacity:1;filter:url(#filter3398)"
       d="m 92.486048,157.17243 c 4.842219,-0.15689 9.603012,-0.23235 14.386722,-0.33073 0.42765,-0.0622 0.64299,-0.36331 0.56696,-0.99218 l -0.96856,-0.44885 c -1.25412,-1.51993 -0.042,-1.64586 0,-2.43322 l 0.25985,-0.14175"
       id="path2656"
       inkscape:connector-curvature="0"
       sodipodi:nodetypes="cccccc"
       transform="matrix(-0.9563483,0.29222923,0.29222923,0.9563483,127.02631,-18.974536)" />
    <path
       style="fill:none;stroke:#000000;stroke-width:0.86500001;stroke-linecap:butt;stroke-linejoin:miter;stroke-miterlimit:4;stroke-dasharray:none;stroke-opacity:1;filter:url(#filter4410)"
       d="m 101.6,166.36198 43.06094,0.19844 c 0.58172,0.7794 0.59096,1.37665 -0.19844,1.71979 l -43.06094,0.13229 c -0.78437,-0.5134 -0.78062,-1.18443 0.19844,-2.05052 z"
       id="path3474"
       inkscape:connector-curvature="0"
       sodipodi:nodetypes="ccccc"
       transform="matrix(-0.9563483,0.29222923,0.29222923,0.9563483,127.02631,-18.974536)" />
    <path
       style="fill:#000005;fill-opacity:0.98999999;stroke:#000000;stroke-width:0.26458332px;stroke-linecap:butt;stroke-linejoin:miter;stroke-opacity:1;filter:url(#filter4042)"
       d="m 107.61927,168.97474 25.4,1.98437 c 0.75204,-0.8232 1.85753,-1.63226 6.94531,-2.28203 l -32.41146,0.13229 z"
       id="path3476"
       inkscape:connector-curvature="0"
       sodipodi:nodetypes="ccccc"
       transform="matrix(-0.9563483,0.29222923,0.29222923,0.9563483,127.02631,-18.974536)" />
    <path
       style="opacity:0.71600001;fill:#ff861a;fill-opacity:1;fill-rule:nonzero;stroke:#000000;stroke-width:0.40000001;stroke-linecap:round;stroke-linejoin:round;stroke-miterlimit:4;stroke-dasharray:none;stroke-opacity:1"
       id="path4414"
       sodipodi:type="arc"
       sodipodi:cx="11.933787"
       sodipodi:cy="182.34645"
       sodipodi:rx="1.6837981"
       sodipodi:ry="1.6837981"
       sodipodi:start="5.1726149"
       sodipodi:end="5.1482675"
       d="m 12.681647,180.83785 a 1.6837981,1.6837981 0 0 1 0.765267,2.24726 1.6837981,1.6837981 0 0 1 -2.242566,0.77894 1.6837981,1.6837981 0 0 1 -0.792567,-2.23779 1.6837981,1.6837981 0 0 1 2.232918,-0.80617 l -0.710912,1.52636 z"
       transform="matrix(-0.9563483,0.29222923,0.29222923,0.9563483,0,0)" />
    <path
       style="fill:none;stroke:#000000;stroke-width:0.66500002;stroke-linecap:round;stroke-linejoin:miter;stroke-miterlimit:4;stroke-dasharray:none;stroke-opacity:1;filter:url(#filter4544)"
       d="m 138.03809,163.90631 c 0.68507,0.53184 1.30429,0.37217 1.90169,-0.0165 v 0"
       id="path4418"
       inkscape:connector-curvature="0"
       sodipodi:nodetypes="ccc"
       transform="matrix(-0.9563483,0.29222923,0.29222923,0.9563483,127.02631,-18.974536)" />
    <path
       style="fill:none;stroke:#000000;stroke-width:0.26499999;stroke-linecap:round;stroke-linejoin:round;stroke-miterlimit:4;stroke-dasharray:none;stroke-opacity:1;paint-order:stroke fill markers"
       d="m 86.797648,151.55337 c 1.87214,5.55949 1.210999,3.74852 1.754812,5.66275 l -0.0068,-0.0224"
       id="path4548"
       inkscape:connector-curvature="0"
       sodipodi:nodetypes="ccc" />
    <path
       style="fill:none;stroke:#000000;stroke-width:0.26458332px;stroke-linecap:butt;stroke-linejoin:miter;stroke-opacity:1"
       d="m 89.206957,157.29735 0.170229,0.87722 v 0"
       id="path4556"
       inkscape:connector-curvature="0" />
    <path
       style="opacity:0.71600001;fill:#ff861a;fill-opacity:1;fill-rule:nonzero;stroke:#000000;stroke-width:0.06625;stroke-linecap:round;stroke-linejoin:round;stroke-miterlimit:4;stroke-dasharray:none;stroke-opacity:1;paint-order:stroke fill markers"
       d="m 97.161584,177.303 c 0.137357,-0.42193 0.40182,-1.20679 0.587696,-1.74413 0.41233,-1.192 0.565995,-1.96881 0.603391,-3.05025 0.07192,-2.08003 -0.500039,-4.51181 -1.642115,-6.98167 -0.107885,-0.23332 -0.452027,-1.10429 -0.764758,-1.93549 -0.61529,-1.63536 -0.745242,-1.89191 -1.824512,-3.60191 -0.927663,-1.46979 -1.407079,-1.98453 -2.254281,-2.42036 -0.490829,-0.2525 -0.842416,-0.36969 -1.535915,-0.51195 -0.865956,-0.17764 -0.89764,-0.1788 -0.85256,-0.0313 0.02575,0.0843 0.01188,0.18051 -0.03082,0.21386 -0.0491,0.0383 -0.04753,0.2173 0.0042,0.4867 0.08181,0.42567 0.08228,0.42639 0.497733,0.76748 1.115943,0.91621 1.674401,1.75274 3.050878,4.57001 l 0.793887,1.62487 0.857011,2.81597 c 1.179516,3.87575 1.269718,4.50181 1.192266,8.27612 l -0.03884,1.89278 -0.300312,0.34659 -0.300314,0.34659 0.768892,-0.15421 c 0.422889,-0.0848 0.807099,-0.15159 0.853797,-0.1484 0.04726,0.003 0.19564,-0.33434 0.334649,-0.76134 z"
       id="path4558"
       inkscape:connector-curvature="0" />
    <flowRoot
       xml:space="preserve"
       id="flowRoot4643"
       style="font-style:normal;font-variant:normal;font-weight:normal;font-stretch:normal;font-size:24px;line-height:1.25;font-family:Trattatello;-inkscape-font-specification:Trattatello;letter-spacing:0px;word-spacing:0px;fill:#000000;fill-opacity:1;stroke:none"
       transform="matrix(0.25303382,-0.07731898,0.07731898,0.25303382,-53.086727,113.80367)"><flowRegion
         id="flowRegion4645"
         style="font-style:normal;font-variant:normal;font-weight:normal;font-stretch:normal;font-size:24px;font-family:Trattatello;-inkscape-font-specification:Trattatello"><rect
           id="rect4647"
           width="180"
           height="58"
           x="296"
           y="324.51968"
           style="font-style:normal;font-variant:normal;font-weight:normal;font-stretch:normal;font-size:24px;font-family:Trattatello;-inkscape-font-specification:Trattatello" /></flowRegion><flowPara
         id="flowPara4649">FIzzGuN</flowPara></flowRoot>    <g
       id="g4809"
       transform="matrix(-0.9563483,0.29222923,0.29222923,0.9563483,133.34834,-9.1686549)">
      <path
         d="m 57.421324,125.10987 a 3.88729,3.88729 0 0 1 1.756866,5.20819 3.88729,3.88729 0 0 1 -5.207601,1.75863 3.88729,3.88729 0 0 1 -1.760377,-5.20701 3.88729,3.88729 0 0 1 5.206414,-1.76213 l -1.721844,3.48515 z"
         sodipodi:end="5.1712665"
         sodipodi:start="5.1726149"
         sodipodi:ry="3.88729"
         sodipodi:rx="3.88729"
         sodipodi:cy="128.5927"
         sodipodi:cx="55.694782"
         sodipodi:type="arc"
         id="path4739"
         style="opacity:0.50800003;fill:#6fcbdd;fill-opacity:0.98000004;fill-rule:nonzero;stroke:#000000;stroke-width:0.50437891;stroke-linecap:round;stroke-linejoin:round;stroke-miterlimit:4;stroke-dasharray:none;stroke-opacity:1;paint-order:stroke fill markers" />
      <path
         sodipodi:nodetypes="cccc"
         inkscape:connector-curvature="0"
         id="path4741"
         d="m 57.95903,127.23015 c 0.164581,1.25666 0.64778,1.90165 -1.582968,4.18785 0.263686,0.0745 1.430685,0.11348 2.344396,-1.84346 0.358729,-1.18982 -1.22e-4,-1.90126 -0.761428,-2.34439 z"
         style="fill:#ffffff;fill-opacity:0.98000004;stroke:none;stroke-width:0.08015031px;stroke-linecap:butt;stroke-linejoin:miter;stroke-opacity:1" />
    </g>
    <g
       id="g4769"
       transform="matrix(-0.9563483,0.29222923,0.29222923,0.9563483,133.06502,-12.016503)">
      <path
         d="m 39.032793,132.38593 a 3.88729,3.88729 0 0 1 1.756866,5.2082 3.88729,3.88729 0 0 1 -5.207601,1.75862 3.88729,3.88729 0 0 1 -1.760377,-5.20701 3.88729,3.88729 0 0 1 5.206415,-1.76213 l -1.721844,3.48515 z"
         sodipodi:end="5.1712665"
         sodipodi:start="5.1726149"
         sodipodi:ry="3.88729"
         sodipodi:rx="3.88729"
         sodipodi:cy="135.86876"
         sodipodi:cx="37.306252"
         sodipodi:type="arc"
         id="path4739-9"
         style="display:inline;opacity:0.572;fill:#388af1;fill-opacity:0.98000004;fill-rule:nonzero;stroke:#000000;stroke-width:0.50437891;stroke-linecap:round;stroke-linejoin:round;stroke-miterlimit:4;stroke-dasharray:none;stroke-opacity:1;paint-order:stroke fill markers" />
      <path
         sodipodi:nodetypes="cccc"
         inkscape:connector-curvature="0"
         id="path4741-8"
         d="m 39.5705,134.50621 c 0.164581,1.25666 0.64778,1.90165 -1.582968,4.18785 0.263686,0.0745 1.430685,0.11348 2.344396,-1.84346 0.358729,-1.18982 -1.22e-4,-1.90126 -0.761428,-2.34439 z"
         style="display:inline;fill:#388af1;fill-opacity:0.98000004;stroke:none;stroke-width:0.08015031px;stroke-linecap:butt;stroke-linejoin:miter;stroke-opacity:1" />
    </g>
    <g
       transform="matrix(-0.50248908,0.15354447,-0.15354447,-0.50248908,169.08521,197.55939)"
       style="display:inline"
       id="g4769-9">
      <path
         d="m 39.032793,132.38593 a 3.88729,3.88729 0 0 1 1.756866,5.2082 3.88729,3.88729 0 0 1 -5.207601,1.75862 3.88729,3.88729 0 0 1 -1.760377,-5.20701 3.88729,3.88729 0 0 1 5.206415,-1.76213 l -1.721844,3.48515 z"
         sodipodi:end="5.1712665"
         sodipodi:start="5.1726149"
         sodipodi:ry="3.88729"
         sodipodi:rx="3.88729"
         sodipodi:cy="135.86876"
         sodipodi:cx="37.306252"
         sodipodi:type="arc"
         id="path4739-9-0"
         style="display:inline;opacity:0.572;fill:#388af1;fill-opacity:0.98000004;fill-rule:nonzero;stroke:#000000;stroke-width:0.50437891;stroke-linecap:round;stroke-linejoin:round;stroke-miterlimit:4;stroke-dasharray:none;stroke-opacity:1;paint-order:stroke fill markers" />
      <path
         sodipodi:nodetypes="cccc"
         inkscape:connector-curvature="0"
         id="path4741-8-1"
         d="m 39.5705,134.50621 c 0.164581,1.25666 0.64778,1.90165 -1.582968,4.18785 0.263686,0.0745 1.430685,0.11348 2.344396,-1.84346 0.358729,-1.18982 -1.22e-4,-1.90126 -0.761428,-2.34439 z"
         style="display:inline;fill:#388af1;fill-opacity:0.98000004;stroke:none;stroke-width:0.08015031px;stroke-linecap:butt;stroke-linejoin:miter;stroke-opacity:1" />
    </g>
    <g
       transform="matrix(-0.74022476,0.22618884,0.22618884,0.74022476,141.2277,36.837106)"
       style="display:inline"
       id="g4809-6">
      <path
         d="m 57.421324,125.10987 a 3.88729,3.88729 0 0 1 1.756866,5.20819 3.88729,3.88729 0 0 1 -5.207601,1.75863 3.88729,3.88729 0 0 1 -1.760377,-5.20701 3.88729,3.88729 0 0 1 5.206414,-1.76213 l -1.721844,3.48515 z"
         sodipodi:end="5.1712665"
         sodipodi:start="5.1726149"
         sodipodi:ry="3.88729"
         sodipodi:rx="3.88729"
         sodipodi:cy="128.5927"
         sodipodi:cx="55.694782"
         sodipodi:type="arc"
         id="path4739-1"
         style="opacity:0.50800003;fill:#6fcbdd;fill-opacity:0.98000004;fill-rule:nonzero;stroke:#000000;stroke-width:0.50437891;stroke-linecap:round;stroke-linejoin:round;stroke-miterlimit:4;stroke-dasharray:none;stroke-opacity:1;paint-order:stroke fill markers" />
      <path
         sodipodi:nodetypes="cccc"
         inkscape:connector-curvature="0"
         id="path4741-4"
         d="m 57.95903,127.23015 c 0.164581,1.25666 0.64778,1.90165 -1.582968,4.18785 0.263686,0.0745 1.430685,0.11348 2.344396,-1.84346 0.358729,-1.18982 -1.22e-4,-1.90126 -0.761428,-2.34439 z"
         style="fill:#ffffff;fill-opacity:0.98000004;stroke:none;stroke-width:0.08015031px;stroke-linecap:butt;stroke-linejoin:miter;stroke-opacity:1" />
    </g>
    <g
       id="g4866"
       transform="matrix(-0.9563483,0.29222923,0.29222923,0.9563483,127.02631,-18.974536)">
      <path
         d="m 31.473643,155.81992 a 3.88729,3.88729 0 0 1 1.756866,5.2082 3.88729,3.88729 0 0 1 -5.207602,1.75862 3.88729,3.88729 0 0 1 -1.760376,-5.20701 3.88729,3.88729 0 0 1 5.206414,-1.76213 l -1.721844,3.48515 z"
         sodipodi:end="5.1712665"
         sodipodi:start="5.1726149"
         sodipodi:ry="3.88729"
         sodipodi:rx="3.88729"
         sodipodi:cy="159.30275"
         sodipodi:cx="29.747101"
         sodipodi:type="arc"
         id="path4739-9-2"
         style="display:inline;opacity:0.572;fill:#93da77;fill-opacity:0.98000004;fill-rule:nonzero;stroke:#000000;stroke-width:0.50437891;stroke-linecap:round;stroke-linejoin:round;stroke-miterlimit:4;stroke-dasharray:none;stroke-opacity:1;paint-order:stroke fill markers" />
      <path
         sodipodi:nodetypes="cccc"
         inkscape:connector-curvature="0"
         id="path4741-8-5"
         d="m 32.011349,157.94019 c 0.164581,1.25666 0.64778,1.90165 -1.582968,4.18785 0.263686,0.0745 1.430685,0.11348 2.344396,-1.84346 0.358729,-1.18982 -1.22e-4,-1.90126 -0.761428,-2.34439 z"
         style="display:inline;fill:#ebffff;fill-opacity:0.98000004;stroke:none;stroke-width:0.08015031px;stroke-linecap:butt;stroke-linejoin:miter;stroke-opacity:1" />
    </g>
    <g
       transform="matrix(-0.6213568,0.18986662,0.18986662,0.6213568,129.6492,48.793411)"
       style="display:inline"
       id="g4866-3">
      <path
         d="m 31.473643,155.81992 a 3.88729,3.88729 0 0 1 1.756866,5.2082 3.88729,3.88729 0 0 1 -5.207602,1.75862 3.88729,3.88729 0 0 1 -1.760376,-5.20701 3.88729,3.88729 0 0 1 5.206414,-1.76213 l -1.721844,3.48515 z"
         sodipodi:end="5.1712665"
         sodipodi:start="5.1726149"
         sodipodi:ry="3.88729"
         sodipodi:rx="3.88729"
         sodipodi:cy="159.30275"
         sodipodi:cx="29.747101"
         sodipodi:type="arc"
         id="path4739-9-2-6"
         style="display:inline;opacity:0.572;fill:#93da77;fill-opacity:0.98000004;fill-rule:nonzero;stroke:#000000;stroke-width:0.50437891;stroke-linecap:round;stroke-linejoin:round;stroke-miterlimit:4;stroke-dasharray:none;stroke-opacity:1;paint-order:stroke fill markers" />
      <path
         sodipodi:nodetypes="cccc"
         inkscape:connector-curvature="0"
         id="path4741-8-5-2"
         d="m 32.011349,157.94019 c 0.164581,1.25666 0.64778,1.90165 -1.582968,4.18785 0.263686,0.0745 1.430685,0.11348 2.344396,-1.84346 0.358729,-1.18982 -1.22e-4,-1.90126 -0.761428,-2.34439 z"
         style="display:inline;fill:#ebffff;fill-opacity:0.98000004;stroke:none;stroke-width:0.08015031px;stroke-linecap:butt;stroke-linejoin:miter;stroke-opacity:1" />
    </g>
    <g
       transform="matrix(-0.62135681,0.18986662,0.18986662,0.62135681,114.71498,36.010759)"
       style="display:inline"
       id="g4866-3-6">
      <path
         d="m 31.473643,155.81992 a 3.88729,3.88729 0 0 1 1.756866,5.2082 3.88729,3.88729 0 0 1 -5.207602,1.75862 3.88729,3.88729 0 0 1 -1.760376,-5.20701 3.88729,3.88729 0 0 1 5.206414,-1.76213 l -1.721844,3.48515 z"
         sodipodi:end="5.1712665"
         sodipodi:start="5.1726149"
         sodipodi:ry="3.88729"
         sodipodi:rx="3.88729"
         sodipodi:cy="159.30275"
         sodipodi:cx="29.747101"
         sodipodi:type="arc"
         id="path4739-9-2-6-5"
         style="display:inline;opacity:0.572;fill:#93da77;fill-opacity:0.98000004;fill-rule:nonzero;stroke:#000000;stroke-width:0.50437891;stroke-linecap:round;stroke-linejoin:round;stroke-miterlimit:4;stroke-dasharray:none;stroke-opacity:1;paint-order:stroke fill markers" />
      <path
         sodipodi:nodetypes="cccc"
         inkscape:connector-curvature="0"
         id="path4741-8-5-2-5"
         d="m 32.011349,157.94019 c 0.164581,1.25666 0.64778,1.90165 -1.582968,4.18785 0.263686,0.0745 1.430685,0.11348 2.344396,-1.84346 0.358729,-1.18982 -1.22e-4,-1.90126 -0.761428,-2.34439 z"
         style="display:inline;fill:#ebffff;fill-opacity:0.98000004;stroke:none;stroke-width:0.08015031px;stroke-linecap:butt;stroke-linejoin:miter;stroke-opacity:1" />
    </g>
    <g
       transform="matrix(-0.50248909,0.15354448,0.15354448,0.50248909,127.11063,80.360255)"
       style="display:inline"
       id="g4769-9-7">
      <path
         d="m 39.032793,132.38593 a 3.88729,3.88729 0 0 1 1.756866,5.2082 3.88729,3.88729 0 0 1 -5.207601,1.75862 3.88729,3.88729 0 0 1 -1.760377,-5.20701 3.88729,3.88729 0 0 1 5.206415,-1.76213 l -1.721844,3.48515 z"
         sodipodi:end="5.1712665"
         sodipodi:start="5.1726149"
         sodipodi:ry="3.88729"
         sodipodi:rx="3.88729"
         sodipodi:cy="135.86876"
         sodipodi:cx="37.306252"
         sodipodi:type="arc"
         id="path4739-9-0-8"
         style="display:inline;opacity:0.572;fill:#388af1;fill-opacity:0.98000004;fill-rule:nonzero;stroke:#000000;stroke-width:0.50437891;stroke-linecap:round;stroke-linejoin:round;stroke-miterlimit:4;stroke-dasharray:none;stroke-opacity:1;paint-order:stroke fill markers" />
      <path
         sodipodi:nodetypes="cccc"
         inkscape:connector-curvature="0"
         id="path4741-8-1-7"
         d="m 39.5705,134.50621 c 0.164581,1.25666 0.64778,1.90165 -1.582968,4.18785 0.263686,0.0745 1.430685,0.11348 2.344396,-1.84346 0.358729,-1.18982 -1.22e-4,-1.90126 -0.761428,-2.34439 z"
         style="display:inline;fill:#388af1;fill-opacity:0.98000004;stroke:none;stroke-width:0.08015031px;stroke-linecap:butt;stroke-linejoin:miter;stroke-opacity:1" />
    </g>
    <g
       style="display:inline"
       id="g4809-3"
       transform="matrix(-0.35120237,0.10731613,0.10731613,0.35120237,126.90023,95.324633)">
      <path
         d="m 57.421324,125.10987 a 3.88729,3.88729 0 0 1 1.756866,5.20819 3.88729,3.88729 0 0 1 -5.207601,1.75863 3.88729,3.88729 0 0 1 -1.760377,-5.20701 3.88729,3.88729 0 0 1 5.206414,-1.76213 l -1.721844,3.48515 z"
         sodipodi:end="5.1712665"
         sodipodi:start="5.1726149"
         sodipodi:ry="3.88729"
         sodipodi:rx="3.88729"
         sodipodi:cy="128.5927"
         sodipodi:cx="55.694782"
         sodipodi:type="arc"
         id="path4739-7"
         style="opacity:0.50800003;fill:#6fcbdd;fill-opacity:0.98000004;fill-rule:nonzero;stroke:#000000;stroke-width:0.50437891;stroke-linecap:round;stroke-linejoin:round;stroke-miterlimit:4;stroke-dasharray:none;stroke-opacity:1;paint-order:stroke fill markers" />
      <path
         sodipodi:nodetypes="cccc"
         inkscape:connector-curvature="0"
         id="path4741-2"
         d="m 57.95903,127.23015 c 0.164581,1.25666 0.64778,1.90165 -1.582968,4.18785 0.263686,0.0745 1.430685,0.11348 2.344396,-1.84346 0.358729,-1.18982 -1.22e-4,-1.90126 -0.761428,-2.34439 z"
         style="fill:#ffffff;fill-opacity:0.98000004;stroke:none;stroke-width:0.08015031px;stroke-linecap:butt;stroke-linejoin:miter;stroke-opacity:1" />
    </g>
    <g
       style="display:inline"
       id="g4769-2"
       transform="matrix(-0.72941869,0.22288685,0.22288685,0.72941869,136.55108,35.987798)">
      <path
         d="m 39.032793,132.38593 a 3.88729,3.88729 0 0 1 1.756866,5.2082 3.88729,3.88729 0 0 1 -5.207601,1.75862 3.88729,3.88729 0 0 1 -1.760377,-5.20701 3.88729,3.88729 0 0 1 5.206415,-1.76213 l -1.721844,3.48515 z"
         sodipodi:end="5.1712665"
         sodipodi:start="5.1726149"
         sodipodi:ry="3.88729"
         sodipodi:rx="3.88729"
         sodipodi:cy="135.86876"
         sodipodi:cx="37.306252"
         sodipodi:type="arc"
         id="path4739-9-22"
         style="display:inline;opacity:0.572;fill:#388af1;fill-opacity:0.98000004;fill-rule:nonzero;stroke:#000000;stroke-width:0.50437891;stroke-linecap:round;stroke-linejoin:round;stroke-miterlimit:4;stroke-dasharray:none;stroke-opacity:1;paint-order:stroke fill markers" />
      <path
         sodipodi:nodetypes="cccc"
         inkscape:connector-curvature="0"
         id="path4741-8-7"
         d="m 39.5705,134.50621 c 0.164581,1.25666 0.64778,1.90165 -1.582968,4.18785 0.263686,0.0745 1.430685,0.11348 2.344396,-1.84346 0.358729,-1.18982 -1.22e-4,-1.90126 -0.761428,-2.34439 z"
         style="display:inline;fill:#388af1;fill-opacity:0.98000004;stroke:none;stroke-width:0.08015031px;stroke-linecap:butt;stroke-linejoin:miter;stroke-opacity:1" />
    </g>
    <g
       style="display:inline"
       id="g4809-4"
       transform="matrix(-0.62778025,0.19182942,0.19182942,0.62778025,145.16037,60.240323)">
      <path
         d="m 57.421324,125.10987 a 3.88729,3.88729 0 0 1 1.756866,5.20819 3.88729,3.88729 0 0 1 -5.207601,1.75863 3.88729,3.88729 0 0 1 -1.760377,-5.20701 3.88729,3.88729 0 0 1 5.206414,-1.76213 l -1.721844,3.48515 z"
         sodipodi:end="5.1712665"
         sodipodi:start="5.1726149"
         sodipodi:ry="3.88729"
         sodipodi:rx="3.88729"
         sodipodi:cy="128.5927"
         sodipodi:cx="55.694782"
         sodipodi:type="arc"
         id="path4739-5"
         style="opacity:0.50800003;fill:#6fcbdd;fill-opacity:0.98000004;fill-rule:nonzero;stroke:#000000;stroke-width:0.50437891;stroke-linecap:round;stroke-linejoin:round;stroke-miterlimit:4;stroke-dasharray:none;stroke-opacity:1;paint-order:stroke fill markers" />
      <path
         sodipodi:nodetypes="cccc"
         inkscape:connector-curvature="0"
         id="path4741-1"
         d="m 57.95903,127.23015 c 0.164581,1.25666 0.64778,1.90165 -1.582968,4.18785 0.263686,0.0745 1.430685,0.11348 2.344396,-1.84346 0.358729,-1.18982 -1.22e-4,-1.90126 -0.761428,-2.34439 z"
         style="fill:#ffffff;fill-opacity:0.98000004;stroke:none;stroke-width:0.08015031px;stroke-linecap:butt;stroke-linejoin:miter;stroke-opacity:1" />
    </g>
    <g
       transform="matrix(-0.33863546,0.10347609,0.10347609,0.33863546,129.17032,81.129798)"
       style="display:inline"
       id="g4866-3-5">
      <path
         d="m 31.473643,155.81992 a 3.88729,3.88729 0 0 1 1.756866,5.2082 3.88729,3.88729 0 0 1 -5.207602,1.75862 3.88729,3.88729 0 0 1 -1.760376,-5.20701 3.88729,3.88729 0 0 1 5.206414,-1.76213 l -1.721844,3.48515 z"
         sodipodi:end="5.1712665"
         sodipodi:start="5.1726149"
         sodipodi:ry="3.88729"
         sodipodi:rx="3.88729"
         sodipodi:cy="159.30275"
         sodipodi:cx="29.747101"
         sodipodi:type="arc"
         id="path4739-9-2-6-6"
         style="display:inline;opacity:0.572;fill:#93da77;fill-opacity:0.98000004;fill-rule:nonzero;stroke:#000000;stroke-width:0.50437891;stroke-linecap:round;stroke-linejoin:round;stroke-miterlimit:4;stroke-dasharray:none;stroke-opacity:1;paint-order:stroke fill markers" />
      <path
         sodipodi:nodetypes="cccc"
         inkscape:connector-curvature="0"
         id="path4741-8-5-2-54"
         d="m 32.011349,157.94019 c 0.164581,1.25666 0.64778,1.90165 -1.582968,4.18785 0.263686,0.0745 1.430685,0.11348 2.344396,-1.84346 0.358729,-1.18982 -1.22e-4,-1.90126 -0.761428,-2.34439 z"
         style="display:inline;fill:#ebffff;fill-opacity:0.98000004;stroke:none;stroke-width:0.08015031px;stroke-linecap:butt;stroke-linejoin:miter;stroke-opacity:1" />
    </g>
  </g>
</svg>
